------------------------------------------------------------------------
r1233695 | lueck | 2011-05-27 01:01:56 +1200 (Fri, 27 May 2011) | 2 lines

don't build builds documentation for disabled components
CCBUG:234066
------------------------------------------------------------------------
