------------------------------------------------------------------------
r1065968 | scripty | 2009-12-25 04:06:30 +0000 (Fri, 25 Dec 2009) | 1 line

SVN_SILENT made messages (.desktop file)
------------------------------------------------------------------------
r1067643 | scripty | 2009-12-30 04:20:27 +0000 (Wed, 30 Dec 2009) | 1 line

SVN_SILENT made messages (.desktop file)
------------------------------------------------------------------------
r1072381 | scripty | 2010-01-10 04:11:07 +0000 (Sun, 10 Jan 2010) | 1 line

SVN_SILENT made messages (.desktop file)
------------------------------------------------------------------------
