------------------------------------------------------------------------
r964477 | dimsuz | 2009-05-06 18:31:58 +0000 (Wed, 06 May 2009) | 4 lines

Backport a bugfix to 4.2 branch

BUG: 191833

------------------------------------------------------------------------
r966488 | scripty | 2009-05-11 09:06:19 +0000 (Mon, 11 May 2009) | 1 line

SVN_SILENT made messages (.desktop file)
------------------------------------------------------------------------
r967306 | scripty | 2009-05-13 08:04:38 +0000 (Wed, 13 May 2009) | 1 line

SVN_SILENT made messages (.desktop file)
------------------------------------------------------------------------
r970442 | scripty | 2009-05-20 08:23:51 +0000 (Wed, 20 May 2009) | 1 line

SVN_SILENT made messages (.desktop file)
------------------------------------------------------------------------
r972059 | scripty | 2009-05-24 07:42:12 +0000 (Sun, 24 May 2009) | 1 line

SVN_SILENT made messages (.desktop file)
------------------------------------------------------------------------
r972378 | schwarzer | 2009-05-24 18:45:52 +0000 (Sun, 24 May 2009) | 1 line

backport of r967192: break pause text if it is too long
------------------------------------------------------------------------
r972980 | scripty | 2009-05-26 08:08:20 +0000 (Tue, 26 May 2009) | 1 line

SVN_SILENT made messages (.desktop file)
------------------------------------------------------------------------
r973304 | dimsuz | 2009-05-26 19:41:42 +0000 (Tue, 26 May 2009) | 2 lines

Backport a fix from trunk (r973302)

------------------------------------------------------------------------
r973338 | dimsuz | 2009-05-26 21:08:22 +0000 (Tue, 26 May 2009) | 2 lines

Backport a bugfix from trunk (r973337)

------------------------------------------------------------------------
r973451 | scripty | 2009-05-27 08:45:47 +0000 (Wed, 27 May 2009) | 1 line

SVN_SILENT made messages (.desktop file)
------------------------------------------------------------------------
