------------------------------------------------------------------------
r888202 | bettio | 2008-11-24 00:14:01 +0000 (Mon, 24 Nov 2008) | 3 lines

backport: 888200
(bugfix of 172380)

------------------------------------------------------------------------
r888237 | scripty | 2008-11-24 07:22:56 +0000 (Mon, 24 Nov 2008) | 1 line

SVN_SILENT made messages (.desktop file)
------------------------------------------------------------------------
r890770 | scripty | 2008-11-30 07:18:11 +0000 (Sun, 30 Nov 2008) | 1 line

SVN_SILENT made messages (.desktop file)
------------------------------------------------------------------------
r891481 | scripty | 2008-12-02 08:13:36 +0000 (Tue, 02 Dec 2008) | 1 line

SVN_SILENT made messages (.desktop file)
------------------------------------------------------------------------
r891887 | scripty | 2008-12-03 08:23:19 +0000 (Wed, 03 Dec 2008) | 1 line

SVN_SILENT made messages (.desktop file)
------------------------------------------------------------------------
r892415 | ilic | 2008-12-04 11:58:19 +0000 (Thu, 04 Dec 2008) | 1 line

Also fetch day name from KDE locales. (bport: 892414)
------------------------------------------------------------------------
r893667 | scripty | 2008-12-07 07:53:01 +0000 (Sun, 07 Dec 2008) | 1 line

SVN_SILENT made messages (.desktop file)
------------------------------------------------------------------------
r895373 | bettio | 2008-12-10 14:54:53 +0000 (Wed, 10 Dec 2008) | 2 lines

it should fix 173769.

------------------------------------------------------------------------
r905311 | scripty | 2009-01-04 07:55:37 +0000 (Sun, 04 Jan 2009) | 1 line

SVN_SILENT made messages (.desktop file)
------------------------------------------------------------------------
